Engine/Binaries/Win64/UE4Game.pdb	2019-08-15T18:33:30.357Z
Engine/Content/SlateDebug/Fonts/LastResort.tps	2019-08-15T18:43:12.915Z
Engine/Content/SlateDebug/Fonts/LastResort.ttf	2019-08-15T18:43:13.846Z
Engine/Binaries/ThirdParty/PhysX3/Win64/VS2015/PxFoundationPROFILE_x64.pdb	2019-08-15T18:27:09.211Z
Engine/Binaries/ThirdParty/PhysX3/Win64/VS2015/PxPvdSDKPROFILE_x64.pdb	2019-08-15T18:27:09.400Z
Engine/Binaries/ThirdParty/PhysX3/Win64/VS2015/PhysX3PROFILE_x64.pdb	2019-08-15T18:27:08.752Z
Engine/Binaries/ThirdParty/PhysX3/Win64/VS2015/PhysX3CookingPROFILE_x64.pdb	2019-08-15T18:27:08.269Z
Engine/Binaries/ThirdParty/PhysX3/Win64/VS2015/PhysX3CommonPROFILE_x64.pdb	2019-08-15T18:27:07.652Z
Engine/Binaries/ThirdParty/PhysX3/Win64/VS2015/APEX_ClothingPROFILE_x64.pdb	2019-08-15T18:27:02.372Z
Engine/Binaries/ThirdParty/PhysX3/Win64/VS2015/APEX_LegacyPROFILE_x64.pdb	2019-08-15T18:27:05.038Z
Engine/Binaries/ThirdParty/PhysX3/Win64/VS2015/ApexFrameworkPROFILE_x64.pdb	2019-08-15T18:27:05.991Z
Engine/Binaries/ThirdParty/PhysX3/Win64/VS2015/NvClothPROFILE_x64.pdb	2019-08-15T18:27:06.540Z
